{
  "type": "neoforge:add_spawn_costs",
  "biomes": "#c:is_overworld",
  "entity_types": "lava_monster:lava_monster",
  "spawn_cost": {
    "charge": 8.0,
    "energy_budget": 0.10000000149011612
  }
}